<?xml version="1.0" encoding="UTF-8" standalone="no"?>
<!-- Created with Inkscape (http://www.inkscape.org/) -->

<svg
   width="640"
   height="360"
   viewBox="0 0 640.00001 360"
   id="svg2"
   version="1.1"
   inkscape:version="1.1.1 (3bf5ae0d25, 2021-09-20)"
   sodipodi:docname="architecture.svg"
   xmlns:inkscape="http://www.inkscape.org/namespaces/inkscape"
   xmlns:sodipodi="http://sodipodi.sourceforge.net/DTD/sodipodi-0.dtd"
   xmlns="http://www.w3.org/2000/svg"
   xmlns:svg="http://www.w3.org/2000/svg"
   xmlns:rdf="http://www.w3.org/1999/02/22-rdf-syntax-ns#"
   xmlns:cc="http://creativecommons.org/ns#"
   xmlns:dc="http://purl.org/dc/elements/1.1/">
  <defs
     id="defs4">
    <marker
       inkscape:isstock="true"
       style="overflow:visible"
       id="marker4766"
       refX="0"
       refY="0"
       orient="auto"
       inkscape:stockid="Arrow2Lend">
      <path
         transform="matrix(-1.1,0,0,-1.1,-1.1,0)"
         d="M 8.7185878,4.0337352 -2.2072895,0.01601326 8.7185884,-4.0017078 c -1.7454984,2.3720609 -1.7354408,5.6174519 -6e-7,8.035443 z"
         style="fill:#000000;fill-opacity:1;fill-rule:evenodd;stroke:#000000;stroke-width:0.625;stroke-linejoin:round;stroke-opacity:1"
         id="path4768"
         inkscape:connector-curvature="0" />
    </marker>
    <marker
       inkscape:isstock="true"
       style="overflow:visible"
       id="marker4640"
       refX="0"
       refY="0"
       orient="auto"
       inkscape:stockid="Arrow2Lend">
      <path
         transform="matrix(-1.1,0,0,-1.1,-1.1,0)"
         d="M 8.7185878,4.0337352 -2.2072895,0.01601326 8.7185884,-4.0017078 c -1.7454984,2.3720609 -1.7354408,5.6174519 -6e-7,8.035443 z"
         style="fill:#000000;fill-opacity:1;fill-rule:evenodd;stroke:#000000;stroke-width:0.625;stroke-linejoin:round;stroke-opacity:1"
         id="path4642"
         inkscape:connector-curvature="0" />
    </marker>
    <marker
       inkscape:isstock="true"
       style="overflow:visible"
       id="marker4549"
       refX="0"
       refY="0"
       orient="auto"
       inkscape:stockid="Arrow2Lend">
      <path
         transform="matrix(-1.1,0,0,-1.1,-1.1,0)"
         d="M 8.7185878,4.0337352 -2.2072895,0.01601326 8.7185884,-4.0017078 c -1.7454984,2.3720609 -1.7354408,5.6174519 -6e-7,8.035443 z"
         style="fill:#000000;fill-opacity:1;fill-rule:evenodd;stroke:#000000;stroke-width:0.625;stroke-linejoin:round;stroke-opacity:1"
         id="path4551"
         inkscape:connector-curvature="0" />
    </marker>
    <marker
       inkscape:stockid="Arrow2Lend"
       orient="auto"
       refY="0"
       refX="0"
       id="Arrow2Lend"
       style="overflow:visible"
       inkscape:isstock="true"
       inkscape:collect="always">
      <path
         id="path4294"
         style="fill:#000000;fill-opacity:1;fill-rule:evenodd;stroke:#000000;stroke-width:0.625;stroke-linejoin:round;stroke-opacity:1"
         d="M 8.7185878,4.0337352 -2.2072895,0.01601326 8.7185884,-4.0017078 c -1.7454984,2.3720609 -1.7354408,5.6174519 -6e-7,8.035443 z"
         transform="matrix(-1.1,0,0,-1.1,-1.1,0)"
         inkscape:connector-curvature="0" />
    </marker>
    <inkscape:perspective
       sodipodi:type="inkscape:persp3d"
       inkscape:vp_x="0 : 372.04724 : 1"
       inkscape:vp_y="0 : 1000 : 0"
       inkscape:vp_z="1052.3622 : 372.04724 : 1"
       inkscape:persp3d-origin="526.1811 : 248.03149 : 1"
       id="perspective3336" />
    <filter
       style="color-interpolation-filters:sRGB"
       inkscape:label="Drop Shadow"
       id="filter3354"
       x="-0.04617044"
       y="-0.093960904"
       width="1.1261241"
       height="1.2566737">
      <feFlood
         flood-opacity="0.498039"
         flood-color="rgb(0,0,0)"
         result="flood"
         id="feFlood3356" />
      <feComposite
         in="flood"
         in2="SourceGraphic"
         operator="in"
         result="composite1"
         id="feComposite3358" />
      <feGaussianBlur
         in="composite1"
         stdDeviation="3"
         result="blur"
         id="feGaussianBlur3360" />
      <feOffset
         dx="6"
         dy="6"
         result="offset"
         id="feOffset3362" />
      <feComposite
         in="SourceGraphic"
         in2="offset"
         operator="over"
         result="composite2"
         id="feComposite3364" />
    </filter>
  </defs>
  <sodipodi:namedview
     id="base"
     pagecolor="#ffffff"
     bordercolor="#666666"
     borderopacity="1.0"
     inkscape:pageopacity="0.0"
     inkscape:pageshadow="2"
     inkscape:zoom="1.1890625"
     inkscape:cx="320"
     inkscape:cy="179.97372"
     inkscape:document-units="px"
     inkscape:current-layer="g4284"
     showgrid="false"
     inkscape:window-width="1920"
     inkscape:window-height="1011"
     inkscape:window-x="0"
     inkscape:window-y="32"
     inkscape:window-maximized="1"
     showguides="true"
     inkscape:guide-bbox="true"
     units="px"
     inkscape:pagecheckerboard="0">
    <sodipodi:guide
       position="38.276466,491.46981"
       orientation="1,0"
       id="guide3417" />
    <sodipodi:guide
       position="1010.4987,318.46019"
       orientation="1,0"
       id="guide3419" />
  </sodipodi:namedview>
  <metadata
     id="metadata7">
    <rdf:RDF>
      <cc:Work
         rdf:about="">
        <dc:format>image/svg+xml</dc:format>
        <dc:type
           rdf:resource="http://purl.org/dc/dcmitype/StillImage" />
      </cc:Work>
    </rdf:RDF>
  </metadata>
  <g
     inkscape:label="Camada 1"
     inkscape:groupmode="layer"
     id="layer1"
     transform="translate(0,-692.36219)">
    <g
       id="g4284"
       transform="matrix(0.5010591,0,0,0.5010591,49.651961,517.55938)">
      <g
         id="g1549"
         transform="translate(-283.39971)">
        <g
           id="g3447"
           transform="translate(59.50492,-166.8854)">
          <rect
             style="color:#000000;clip-rule:nonzero;display:inline;overflow:visible;visibility:visible;opacity:1;isolation:auto;mix-blend-mode:normal;color-interpolation:sRGB;color-interpolation-filters:linearRGB;solid-color:#000000;solid-opacity:1;fill:#fce94f;fill-opacity:1;fill-rule:nonzero;stroke:#2e3436;stroke-width:2;stroke-linecap:butt;stroke-linejoin:miter;stroke-miterlimit:4;stroke-dasharray:none;stroke-dashoffset:0;stroke-opacity:1;marker:none;filter:url(#filter3354);color-rendering:auto;image-rendering:auto;shape-rendering:auto;text-rendering:auto;enable-background:accumulate"
             id="rect3449"
             width="177.60281"
             height="90.332413"
             x="362.8609"
             y="648.16272"
             rx="9.3401003"
             ry="14.0101" />
          <text
             xml:space="preserve"
             style="font-style:normal;font-variant:normal;font-weight:normal;font-stretch:normal;line-height:0%;font-family:Cantarell;-inkscape-font-specification:Cantarell;letter-spacing:0px;word-spacing:0px;fill:#000000;fill-opacity:1;stroke:none;stroke-width:1px;stroke-linecap:butt;stroke-linejoin:miter;stroke-opacity:1"
             x="379.2951"
             y="701.09918"
             id="text3451"><tspan
               sodipodi:role="line"
               x="379.2951"
               y="701.09918"
               style="font-size:30px;line-height:1.25"
               id="tspan429">web UI/API</tspan></text>
        </g>
        <g
           id="g1517"
           transform="translate(-27.940816)">
          <path
             style="color:#000000;display:inline;overflow:visible;visibility:visible;fill:none;fill-rule:evenodd;stroke:#000000;stroke-width:1px;stroke-linecap:butt;stroke-linejoin:miter;stroke-miterlimit:4;stroke-dasharray:none;stroke-dashoffset:0;stroke-opacity:1;marker:none;marker-end:url(#Arrow2Lend);enable-background:accumulate"
             d="m 531.56737,577.09117 v 67.12256"
             id="path1511"
             inkscape:connector-curvature="0" />
          <text
             id="text1515"
             y="612.81769"
             x="539.14569"
             style="font-style:normal;font-variant:normal;font-weight:normal;font-stretch:normal;line-height:0%;font-family:Cantarell;-inkscape-font-specification:Cantarell;letter-spacing:0px;word-spacing:0px;fill:#000000;fill-opacity:1;stroke:none;stroke-width:1px;stroke-linecap:butt;stroke-linejoin:miter;stroke-opacity:1"
             xml:space="preserve"><tspan
               style="font-size:20px;line-height:1.25"
               y="612.81769"
               x="539.14569"
               id="tspan1513"
               sodipodi:role="line">test jobs</tspan></text>
        </g>
      </g>
      <g
         id="g1539"
         transform="translate(279.92348)">
        <g
           transform="translate(-223.93339,-166.8854)"
           id="g3439">
          <rect
             ry="14.0101"
             rx="9.3401003"
             y="648.16272"
             x="362.8609"
             height="90.332413"
             width="177.60281"
             id="rect3441"
             style="color:#000000;clip-rule:nonzero;display:inline;overflow:visible;visibility:visible;opacity:1;isolation:auto;mix-blend-mode:normal;color-interpolation:sRGB;color-interpolation-filters:linearRGB;solid-color:#000000;solid-opacity:1;fill:#fce94f;fill-opacity:1;fill-rule:nonzero;stroke:#2e3436;stroke-width:2;stroke-linecap:butt;stroke-linejoin:miter;stroke-miterlimit:4;stroke-dasharray:none;stroke-dashoffset:0;stroke-opacity:1;marker:none;filter:url(#filter3354);color-rendering:auto;image-rendering:auto;shape-rendering:auto;text-rendering:auto;enable-background:accumulate" />
          <text
             id="text3443"
             y="644.93915"
             x="395.01312"
             style="font-style:normal;font-variant:normal;font-weight:normal;font-stretch:normal;line-height:0%;font-family:Cantarell;-inkscape-font-specification:Cantarell;letter-spacing:0px;word-spacing:0px;fill:#000000;fill-opacity:1;stroke:none;stroke-width:1px;stroke-linecap:butt;stroke-linejoin:miter;stroke-opacity:1"
             xml:space="preserve"><tspan
               style="font-size:30px;line-height:1.25"
               y="644.93915"
               x="395.01312"
               id="tspan3445"
               sodipodi:role="line"> </tspan><tspan
               style="font-size:30px;line-height:1.25;fill:#888a85"
               y="682.43915"
               x="395.01312"
               sodipodi:role="line"
               id="tspan4265">debci-</tspan><tspan
               style="font-size:30px;line-height:1.25"
               y="719.93915"
               x="395.01312"
               sodipodi:role="line"
               id="tspan4267">enqueue</tspan></text>
        </g>
        <g
           id="g4585"
           transform="translate(-307.34895)">
          <path
             style="color:#000000;display:inline;overflow:visible;visibility:visible;fill:none;fill-rule:evenodd;stroke:#000000;stroke-width:1px;stroke-linecap:butt;stroke-linejoin:miter;stroke-miterlimit:4;stroke-dasharray:none;stroke-dashoffset:0;stroke-opacity:1;marker:none;marker-end:url(#Arrow2Lend);enable-background:accumulate"
             d="m 531.56737,577.09117 v 67.12256"
             id="path3465"
             inkscape:connector-curvature="0" />
          <text
             id="text4581"
             y="612.81769"
             x="539.14569"
             style="font-style:normal;font-variant:normal;font-weight:normal;font-stretch:normal;line-height:0%;font-family:Cantarell;-inkscape-font-specification:Cantarell;letter-spacing:0px;word-spacing:0px;fill:#000000;fill-opacity:1;stroke:none;stroke-width:1px;stroke-linecap:butt;stroke-linejoin:miter;stroke-opacity:1"
             xml:space="preserve"><tspan
               style="font-size:20px;line-height:1.25"
               y="612.81769"
               x="539.14569"
               id="tspan4583"
               sodipodi:role="line">test jobs</tspan></text>
        </g>
      </g>
      <g
         id="g3370">
        <rect
           style="color:#000000;clip-rule:nonzero;display:inline;overflow:visible;visibility:visible;opacity:1;isolation:auto;mix-blend-mode:normal;color-interpolation:sRGB;color-interpolation-filters:linearRGB;solid-color:#000000;solid-opacity:1;fill:#eeeeec;fill-opacity:1;fill-rule:nonzero;stroke:#2e3436;stroke-width:2;stroke-linecap:butt;stroke-linejoin:miter;stroke-miterlimit:4;stroke-dasharray:none;stroke-dashoffset:0;stroke-opacity:1;marker:none;filter:url(#filter3354);color-rendering:auto;image-rendering:auto;shape-rendering:auto;text-rendering:auto;enable-background:accumulate"
           id="rect3352"
           width="969.1601"
           height="87.27034"
           x="39.807522"
           y="651.22485"
           rx="9.3401003"
           ry="14.0101" />
        <text
           xml:space="preserve"
           style="font-style:normal;font-variant:normal;font-weight:normal;font-stretch:normal;line-height:0%;font-family:Cantarell;-inkscape-font-specification:Cantarell;letter-spacing:0px;word-spacing:0px;fill:#000000;fill-opacity:1;stroke:none;stroke-width:1px;stroke-linecap:butt;stroke-linejoin:miter;stroke-opacity:1"
           x="384.29572"
           y="706.34296"
           id="text3366"><tspan
             sodipodi:role="line"
             id="tspan3368"
             x="384.29572"
             y="706.34296"
             style="font-size:30px;line-height:1.25">AMQP (rabbitmq)</tspan></text>
      </g>
      <g
         transform="translate(0,20)"
         id="g3421">
        <g
           transform="translate(-323.05338,159.23008)"
           id="g3385">
          <rect
             ry="14.0101"
             rx="9.3401003"
             y="648.16272"
             x="362.8609"
             height="90.332413"
             width="177.60281"
             id="rect3387"
             style="color:#000000;clip-rule:nonzero;display:inline;overflow:visible;visibility:visible;opacity:1;isolation:auto;mix-blend-mode:normal;color-interpolation:sRGB;color-interpolation-filters:linearRGB;solid-color:#000000;solid-opacity:1;fill:#e9b96e;fill-opacity:1;fill-rule:nonzero;stroke:#2e3436;stroke-width:2;stroke-linecap:butt;stroke-linejoin:miter;stroke-miterlimit:4;stroke-dasharray:none;stroke-dashoffset:0;stroke-opacity:1;marker:none;filter:url(#filter3354);color-rendering:auto;image-rendering:auto;shape-rendering:auto;text-rendering:auto;enable-background:accumulate" />
          <text
             id="text3389"
             y="646.93036"
             x="407.01312"
             style="font-style:normal;font-variant:normal;font-weight:normal;font-stretch:normal;line-height:0%;font-family:Cantarell;-inkscape-font-specification:Cantarell;letter-spacing:0px;word-spacing:0px;fill:#000000;fill-opacity:1;stroke:none;stroke-width:1px;stroke-linecap:butt;stroke-linejoin:miter;stroke-opacity:1"
             xml:space="preserve"><tspan
               style="font-size:30px;line-height:1.25"
               y="646.93036"
               x="407.01312"
               id="tspan3391"
               sodipodi:role="line"> </tspan><tspan
               style="font-size:30px;line-height:1.25;fill:#888a85"
               y="668.79858"
               x="407.01312"
               sodipodi:role="line"
               id="tspan4273">debci-</tspan><tspan
               style="font-size:30px;line-height:1.25"
               y="690.66675"
               x="407.01312"
               sodipodi:role="line"
               id="tspan4275">worker</tspan></text>
        </g>
        <g
           id="g3393"
           transform="translate(469.57577,159.23008)">
          <rect
             style="color:#000000;clip-rule:nonzero;display:inline;overflow:visible;visibility:visible;opacity:1;isolation:auto;mix-blend-mode:normal;color-interpolation:sRGB;color-interpolation-filters:linearRGB;solid-color:#000000;solid-opacity:1;fill:#e9b96e;fill-opacity:1;fill-rule:nonzero;stroke:#2e3436;stroke-width:2;stroke-linecap:butt;stroke-linejoin:miter;stroke-miterlimit:4;stroke-dasharray:none;stroke-dashoffset:0;stroke-opacity:1;marker:none;filter:url(#filter3354);color-rendering:auto;image-rendering:auto;shape-rendering:auto;text-rendering:auto;enable-background:accumulate"
             id="rect3395"
             width="177.60281"
             height="90.332413"
             x="362.8609"
             y="648.16272"
             rx="9.3401003"
             ry="14.0101" />
          <text
             xml:space="preserve"
             style="font-style:normal;font-variant:normal;font-weight:normal;font-stretch:normal;line-height:0%;font-family:Cantarell;-inkscape-font-specification:Cantarell;letter-spacing:0px;word-spacing:0px;fill:#000000;fill-opacity:1;stroke:none;stroke-width:1px;stroke-linecap:butt;stroke-linejoin:miter;stroke-opacity:1"
             x="407.01312"
             y="686.84583"
             id="text3397"><tspan
               sodipodi:role="line"
               id="tspan3399"
               x="407.01312"
               y="686.84583"
               style="font-size:30px;line-height:1.25;fill:#888a85">debci-</tspan><tspan
               sodipodi:role="line"
               x="407.01312"
               y="708.71405"
               style="font-size:30px;line-height:1.25"
               id="tspan4281">worker</tspan></text>
        </g>
        <g
           transform="translate(-58.84366,159.23008)"
           id="g3401">
          <rect
             ry="14.0101"
             rx="9.3401003"
             y="648.16272"
             x="362.8609"
             height="90.332413"
             width="177.60281"
             id="rect3403"
             style="color:#000000;clip-rule:nonzero;display:inline;overflow:visible;visibility:visible;opacity:1;isolation:auto;mix-blend-mode:normal;color-interpolation:sRGB;color-interpolation-filters:linearRGB;solid-color:#000000;solid-opacity:1;fill:#e9b96e;fill-opacity:1;fill-rule:nonzero;stroke:#2e3436;stroke-width:2;stroke-linecap:butt;stroke-linejoin:miter;stroke-miterlimit:4;stroke-dasharray:none;stroke-dashoffset:0;stroke-opacity:1;marker:none;filter:url(#filter3354);color-rendering:auto;image-rendering:auto;shape-rendering:auto;text-rendering:auto;enable-background:accumulate" />
          <text
             id="text3405"
             y="686.84583"
             x="407.01312"
             style="font-style:normal;font-variant:normal;font-weight:normal;font-stretch:normal;line-height:0%;font-family:Cantarell;-inkscape-font-specification:Cantarell;letter-spacing:0px;word-spacing:0px;fill:#000000;fill-opacity:1;stroke:none;stroke-width:1px;stroke-linecap:butt;stroke-linejoin:miter;stroke-opacity:1"
             xml:space="preserve"><tspan
               style="font-size:30px;line-height:1.25;fill:#888a85"
               y="686.84583"
               x="407.01312"
               id="tspan3407"
               sodipodi:role="line">debci-</tspan><tspan
               style="font-size:30px;line-height:1.25"
               y="708.71405"
               x="407.01312"
               sodipodi:role="line"
               id="tspan4277">worker</tspan></text>
        </g>
        <g
           id="g3409"
           transform="translate(205.36606,159.23008)">
          <rect
             style="color:#000000;clip-rule:nonzero;display:inline;overflow:visible;visibility:visible;opacity:1;isolation:auto;mix-blend-mode:normal;color-interpolation:sRGB;color-interpolation-filters:linearRGB;solid-color:#000000;solid-opacity:1;fill:#e9b96e;fill-opacity:1;fill-rule:nonzero;stroke:#2e3436;stroke-width:2;stroke-linecap:butt;stroke-linejoin:miter;stroke-miterlimit:4;stroke-dasharray:none;stroke-dashoffset:0;stroke-opacity:1;marker:none;filter:url(#filter3354);color-rendering:auto;image-rendering:auto;shape-rendering:auto;text-rendering:auto;enable-background:accumulate"
             id="rect3411"
             width="177.60281"
             height="90.332413"
             x="362.8609"
             y="648.16272"
             rx="9.3401003"
             ry="14.0101" />
          <text
             xml:space="preserve"
             style="font-style:normal;font-variant:normal;font-weight:normal;font-stretch:normal;line-height:0%;font-family:Cantarell;-inkscape-font-specification:Cantarell;letter-spacing:0px;word-spacing:0px;fill:#000000;fill-opacity:1;stroke:none;stroke-width:1px;stroke-linecap:butt;stroke-linejoin:miter;stroke-opacity:1"
             x="407.01312"
             y="686.84583"
             id="text3413"><tspan
               sodipodi:role="line"
               id="tspan3415"
               x="407.01312"
               y="686.84583"
               style="font-size:30px;line-height:1.25;fill:#888a85">debci-</tspan><tspan
               sodipodi:role="line"
               x="407.01312"
               y="708.71405"
               style="font-size:30px;line-height:1.25"
               id="tspan4279">worker</tspan></text>
        </g>
      </g>
      <g
         id="g1561">
        <g
           transform="translate(334.23188,-166.8854)"
           id="g3377">
          <rect
             ry="14.0101"
             rx="9.3401003"
             y="648.16272"
             x="362.8609"
             height="90.332413"
             width="177.60281"
             id="rect3379"
             style="color:#000000;clip-rule:nonzero;display:inline;overflow:visible;visibility:visible;opacity:1;isolation:auto;mix-blend-mode:normal;color-interpolation:sRGB;color-interpolation-filters:linearRGB;solid-color:#000000;solid-opacity:1;fill:#8ae234;fill-opacity:1;fill-rule:nonzero;stroke:#2e3436;stroke-width:2;stroke-linecap:butt;stroke-linejoin:miter;stroke-miterlimit:4;stroke-dasharray:none;stroke-dashoffset:0;stroke-opacity:1;marker:none;filter:url(#filter3354);color-rendering:auto;image-rendering:auto;shape-rendering:auto;text-rendering:auto;enable-background:accumulate" />
          <text
             id="text3381"
             y="644.93854"
             x="395.01312"
             style="font-style:normal;font-variant:normal;font-weight:normal;font-stretch:normal;line-height:0%;font-family:Cantarell;-inkscape-font-specification:Cantarell;letter-spacing:0px;word-spacing:0px;fill:#000000;fill-opacity:1;stroke:none;stroke-width:1px;stroke-linecap:butt;stroke-linejoin:miter;stroke-opacity:1"
             xml:space="preserve"><tspan
               style="font-size:30px;line-height:1.25"
               y="644.93854"
               x="395.01312"
               id="tspan3383"
               sodipodi:role="line"> </tspan><tspan
               style="font-size:30px;line-height:1.25;fill:#555753"
               y="682.43854"
               x="395.01312"
               sodipodi:role="line"
               id="tspan4261">debci-</tspan><tspan
               style="font-size:30px;line-height:1.25"
               y="719.93854"
               x="395.01312"
               sodipodi:role="line"
               id="tspan4263">collector</tspan></text>
        </g>
        <g
           transform="translate(254.81631)"
           id="g4595">
          <path
             inkscape:connector-curvature="0"
             id="path4597"
             d="M 531.56737,645.88542 V 578.76286"
             style="color:#000000;display:inline;overflow:visible;visibility:visible;fill:none;fill-rule:evenodd;stroke:#000000;stroke-width:1px;stroke-linecap:butt;stroke-linejoin:miter;stroke-miterlimit:4;stroke-dasharray:none;stroke-dashoffset:0;stroke-opacity:1;marker:none;marker-end:url(#marker4766);enable-background:accumulate" />
          <text
             xml:space="preserve"
             style="font-style:normal;font-variant:normal;font-weight:normal;font-stretch:normal;line-height:0%;font-family:Cantarell;-inkscape-font-specification:Cantarell;letter-spacing:0px;word-spacing:0px;fill:#000000;fill-opacity:1;stroke:none;stroke-width:1px;stroke-linecap:butt;stroke-linejoin:miter;stroke-opacity:1"
             x="539.14569"
             y="612.81769"
             id="text4599"><tspan
               sodipodi:role="line"
               id="tspan4601"
               x="539.14569"
               y="612.81769"
               style="font-size:20px;line-height:1.25">test results</tspan></text>
        </g>
      </g>
      <g
         transform="translate(-374.3727,173.53106)"
         id="g4622">
        <path
           inkscape:connector-curvature="0"
           id="path4624"
           d="m 531.56737,577.09117 0,67.12256"
           style="color:#000000;display:inline;overflow:visible;visibility:visible;fill:none;fill-rule:evenodd;stroke:#000000;stroke-width:1px;stroke-linecap:butt;stroke-linejoin:miter;stroke-miterlimit:4;stroke-dasharray:none;stroke-dashoffset:0;stroke-opacity:1;marker:none;marker-end:url(#Arrow2Lend);enable-background:accumulate" />
        <text
           xml:space="preserve"
           style="font-style:normal;font-variant:normal;font-weight:normal;font-stretch:normal;line-height:0%;font-family:Cantarell;-inkscape-font-specification:Cantarell;letter-spacing:0px;word-spacing:0px;fill:#000000;fill-opacity:1;stroke:none;stroke-width:1px;stroke-linecap:butt;stroke-linejoin:miter;stroke-opacity:1"
           x="539.14569"
           y="606.81769"
           id="text4626"><tspan
             sodipodi:role="line"
             id="tspan4628"
             x="539.14569"
             y="606.81769"
             style="font-size:20px;line-height:1.25">test</tspan><tspan
             id="tspan4764"
             sodipodi:role="line"
             x="539.14569"
             y="625.95575"
             style="font-size:20px;line-height:1.25">jobs</tspan></text>
      </g>
      <g
         id="g4630"
         transform="translate(-375.14611,169.94751)">
        <path
           style="color:#000000;display:inline;overflow:visible;visibility:visible;fill:none;fill-rule:evenodd;stroke:#000000;stroke-width:1px;stroke-linecap:butt;stroke-linejoin:miter;stroke-miterlimit:4;stroke-dasharray:none;stroke-dashoffset:0;stroke-opacity:1;marker:none;marker-end:url(#marker4640);enable-background:accumulate"
           d="m 487.56737,647.88542 0,-67.12256"
           id="path4632"
           inkscape:connector-curvature="0" />
        <text
           id="text4634"
           y="612.81769"
           x="478.02225"
           style="font-style:normal;font-variant:normal;font-weight:normal;font-stretch:normal;line-height:0%;font-family:Cantarell;-inkscape-font-specification:Cantarell;text-align:end;letter-spacing:0px;word-spacing:0px;text-anchor:end;fill:#000000;fill-opacity:1;stroke:none;stroke-width:1px;stroke-linecap:butt;stroke-linejoin:miter;stroke-opacity:1"
           xml:space="preserve"><tspan
             style="font-size:20px;line-height:1.25;text-align:end;text-anchor:end"
             y="612.81769"
             x="478.02225"
             id="tspan4636"
             sodipodi:role="line">test</tspan><tspan
             id="tspan4638"
             style="font-size:20px;line-height:1.25;text-align:end;text-anchor:end"
             y="631.95575"
             x="478.02225"
             sodipodi:role="line">results</tspan></text>
      </g>
      <g
         id="g4812"
         transform="translate(-104.3727,173.53106)">
        <path
           style="color:#000000;display:inline;overflow:visible;visibility:visible;fill:none;fill-rule:evenodd;stroke:#000000;stroke-width:1px;stroke-linecap:butt;stroke-linejoin:miter;stroke-miterlimit:4;stroke-dasharray:none;stroke-dashoffset:0;stroke-opacity:1;marker:none;marker-end:url(#Arrow2Lend);enable-background:accumulate"
           d="m 531.56737,577.09117 0,67.12256"
           id="path4814"
           inkscape:connector-curvature="0" />
        <text
           id="text4816"
           y="606.81769"
           x="539.14569"
           style="font-style:normal;font-variant:normal;font-weight:normal;font-stretch:normal;line-height:0%;font-family:Cantarell;-inkscape-font-specification:Cantarell;letter-spacing:0px;word-spacing:0px;fill:#000000;fill-opacity:1;stroke:none;stroke-width:1px;stroke-linecap:butt;stroke-linejoin:miter;stroke-opacity:1"
           xml:space="preserve"><tspan
             style="font-size:20px;line-height:1.25"
             y="606.81769"
             x="539.14569"
             id="tspan4818"
             sodipodi:role="line">test</tspan><tspan
             style="font-size:20px;line-height:1.25"
             y="625.95575"
             x="539.14569"
             sodipodi:role="line"
             id="tspan4820">jobs</tspan></text>
      </g>
      <g
         transform="translate(-105.14611,169.94751)"
         id="g4822">
        <path
           inkscape:connector-curvature="0"
           id="path4824"
           d="m 487.56737,647.88542 0,-67.12256"
           style="color:#000000;display:inline;overflow:visible;visibility:visible;fill:none;fill-rule:evenodd;stroke:#000000;stroke-width:1px;stroke-linecap:butt;stroke-linejoin:miter;stroke-miterlimit:4;stroke-dasharray:none;stroke-dashoffset:0;stroke-opacity:1;marker:none;marker-end:url(#marker4640);enable-background:accumulate" />
        <text
           xml:space="preserve"
           style="font-style:normal;font-variant:normal;font-weight:normal;font-stretch:normal;line-height:0%;font-family:Cantarell;-inkscape-font-specification:Cantarell;text-align:end;letter-spacing:0px;word-spacing:0px;text-anchor:end;fill:#000000;fill-opacity:1;stroke:none;stroke-width:1px;stroke-linecap:butt;stroke-linejoin:miter;stroke-opacity:1"
           x="478.02225"
           y="612.81769"
           id="text4826"><tspan
             sodipodi:role="line"
             id="tspan4828"
             x="478.02225"
             y="612.81769"
             style="font-size:20px;line-height:1.25;text-align:end;text-anchor:end">test</tspan><tspan
             sodipodi:role="line"
             x="478.02225"
             y="631.95575"
             style="font-size:20px;line-height:1.25;text-align:end;text-anchor:end"
             id="tspan4830">results</tspan></text>
      </g>
      <g
         transform="translate(161.6273,173.53106)"
         id="g4832">
        <path
           inkscape:connector-curvature="0"
           id="path4834"
           d="m 531.56737,577.09117 0,67.12256"
           style="color:#000000;display:inline;overflow:visible;visibility:visible;fill:none;fill-rule:evenodd;stroke:#000000;stroke-width:1px;stroke-linecap:butt;stroke-linejoin:miter;stroke-miterlimit:4;stroke-dasharray:none;stroke-dashoffset:0;stroke-opacity:1;marker:none;marker-end:url(#Arrow2Lend);enable-background:accumulate" />
        <text
           xml:space="preserve"
           style="font-style:normal;font-variant:normal;font-weight:normal;font-stretch:normal;line-height:0%;font-family:Cantarell;-inkscape-font-specification:Cantarell;letter-spacing:0px;word-spacing:0px;fill:#000000;fill-opacity:1;stroke:none;stroke-width:1px;stroke-linecap:butt;stroke-linejoin:miter;stroke-opacity:1"
           x="539.14569"
           y="606.81769"
           id="text4836"><tspan
             sodipodi:role="line"
             id="tspan4838"
             x="539.14569"
             y="606.81769"
             style="font-size:20px;line-height:1.25">test</tspan><tspan
             id="tspan4840"
             sodipodi:role="line"
             x="539.14569"
             y="625.95575"
             style="font-size:20px;line-height:1.25">jobs</tspan></text>
      </g>
      <g
         id="g4842"
         transform="translate(160.85389,169.94751)">
        <path
           style="color:#000000;display:inline;overflow:visible;visibility:visible;fill:none;fill-rule:evenodd;stroke:#000000;stroke-width:1px;stroke-linecap:butt;stroke-linejoin:miter;stroke-miterlimit:4;stroke-dasharray:none;stroke-dashoffset:0;stroke-opacity:1;marker:none;marker-end:url(#marker4640);enable-background:accumulate"
           d="m 487.56737,647.88542 0,-67.12256"
           id="path4844"
           inkscape:connector-curvature="0" />
        <text
           id="text4846"
           y="612.81769"
           x="478.02225"
           style="font-style:normal;font-variant:normal;font-weight:normal;font-stretch:normal;line-height:0%;font-family:Cantarell;-inkscape-font-specification:Cantarell;text-align:end;letter-spacing:0px;word-spacing:0px;text-anchor:end;fill:#000000;fill-opacity:1;stroke:none;stroke-width:1px;stroke-linecap:butt;stroke-linejoin:miter;stroke-opacity:1"
           xml:space="preserve"><tspan
             style="font-size:20px;line-height:1.25;text-align:end;text-anchor:end"
             y="612.81769"
             x="478.02225"
             id="tspan4848"
             sodipodi:role="line">test</tspan><tspan
             id="tspan4850"
             style="font-size:20px;line-height:1.25;text-align:end;text-anchor:end"
             y="631.95575"
             x="478.02225"
             sodipodi:role="line">results</tspan></text>
      </g>
      <g
         id="g4852"
         transform="translate(423.6273,173.53106)">
        <path
           style="color:#000000;display:inline;overflow:visible;visibility:visible;fill:none;fill-rule:evenodd;stroke:#000000;stroke-width:1px;stroke-linecap:butt;stroke-linejoin:miter;stroke-miterlimit:4;stroke-dasharray:none;stroke-dashoffset:0;stroke-opacity:1;marker:none;marker-end:url(#Arrow2Lend);enable-background:accumulate"
           d="m 531.56737,577.09117 0,67.12256"
           id="path4854"
           inkscape:connector-curvature="0" />
        <text
           id="text4856"
           y="606.81769"
           x="539.14569"
           style="font-style:normal;font-variant:normal;font-weight:normal;font-stretch:normal;line-height:0%;font-family:Cantarell;-inkscape-font-specification:Cantarell;letter-spacing:0px;word-spacing:0px;fill:#000000;fill-opacity:1;stroke:none;stroke-width:1px;stroke-linecap:butt;stroke-linejoin:miter;stroke-opacity:1"
           xml:space="preserve"><tspan
             style="font-size:20px;line-height:1.25"
             y="606.81769"
             x="539.14569"
             id="tspan4858"
             sodipodi:role="line">test</tspan><tspan
             style="font-size:20px;line-height:1.25"
             y="625.95575"
             x="539.14569"
             sodipodi:role="line"
             id="tspan4860">jobs</tspan></text>
      </g>
      <g
         transform="translate(422.85389,169.94751)"
         id="g4862">
        <path
           inkscape:connector-curvature="0"
           id="path4864"
           d="m 487.56737,647.88542 0,-67.12256"
           style="color:#000000;display:inline;overflow:visible;visibility:visible;fill:none;fill-rule:evenodd;stroke:#000000;stroke-width:1px;stroke-linecap:butt;stroke-linejoin:miter;stroke-miterlimit:4;stroke-dasharray:none;stroke-dashoffset:0;stroke-opacity:1;marker:none;marker-end:url(#marker4640);enable-background:accumulate" />
        <text
           xml:space="preserve"
           style="font-style:normal;font-variant:normal;font-weight:normal;font-stretch:normal;line-height:0%;font-family:Cantarell;-inkscape-font-specification:Cantarell;text-align:end;letter-spacing:0px;word-spacing:0px;text-anchor:end;fill:#000000;fill-opacity:1;stroke:none;stroke-width:1px;stroke-linecap:butt;stroke-linejoin:miter;stroke-opacity:1"
           x="478.02225"
           y="612.81769"
           id="text4866"><tspan
             sodipodi:role="line"
             id="tspan4868"
             x="478.02225"
             y="612.81769"
             style="font-size:20px;line-height:1.25;text-align:end;text-anchor:end">test</tspan><tspan
             sodipodi:role="line"
             x="478.02225"
             y="631.95575"
             style="font-size:20px;line-height:1.25;text-align:end;text-anchor:end"
             id="tspan4870">results</tspan></text>
      </g>
    </g>
  </g>
</svg>
